<?xml version="1.0" encoding="UTF-8"?>
<svg width="40px" height="8px" viewBox="0 0 40 8" version="1.1" xmlns="http://www.w3.org/2000/svg" xmlns:xlink="http://www.w3.org/1999/xlink">
    <!-- Generator: sketchtool 51 (57462) - http://www.bohemiancoding.com/sketch -->
    <title>94E4A8BB-86C6-49A3-AAEF-FAD0799CBF52</title>
    <desc>Created with sketchtool.</desc>
    <defs></defs>
    <g id="Page-1" stroke="none" stroke-width="1" fill="none" fill-rule="evenodd">
        <g id="Test-Task" transform="translate(-780.000000, -61.000000)">
            <rect  x="0" y="0" width="1600" height="2220"></rect>
            <g id="navigation" transform="translate(0.000000, 62.000000)">
                <g id="triangle" transform="translate(780.000000, 0.000000)">
                    <polygon id="form" fill="#FFFFFF" points="0 0 40 0 20 7"></polygon>
                    <polyline id="line" stroke="#3D4252" stroke-width="0.5" points="11 0 20 2.96153846 29 0"></polyline>
                </g>
            </g>
        </g>
    </g>
</svg>